^\\ACSNFS4.UCSD.EDU\CIFSHOMES\867\KMMENESE\VISUAL STUDIO 2015\PROJECTS\PROJECT5\RAYTRACEMGR\DEBUG\LOADNFFFILE.OBJ|\\ACSNFS4.UCSD.EDU\CIFSHOMES\867\KMMENESE\VISUAL STUDIO 2015\PROJECTS\PROJECT5\RAYTRACEMGR\DEBUG\LOADOBJFILE.OBJ|\\ACSNFS4.UCSD.EDU\CIFSHOMES\867\KMMENESE\VISUAL STUDIO 2015\PROJECTS\PROJECT5\RAYTRACEMGR\DEBUG\SCENEDESCRIPTION.OBJ
C:\WINDOWS\GLOBALIZATION\SORTING\SORTDEFAULT.NLS
\\ACSNFS4.UCSD.EDU\CIFSHOMES\867\KMMENESE\VISUAL STUDIO 2015\PROJECTS\PROJECT5\RAYTRACEMGR\DEBUG\LOADNFFFILE.OBJ
C:\WINDOWS\SYSTEM32\TZRES.DLL
\\ACSNFS4.UCSD.EDU\CIFSHOMES\867\KMMENESE\VISUAL STUDIO 2015\PROJECTS\PROJECT5\RAYTRACEMGR\DEBUG\LOADOBJFILE.OBJ
\\ACSNFS4.UCSD.EDU\CIFSHOMES\867\KMMENESE\VISUAL STUDIO 2015\PROJECTS\PROJECT5\RAYTRACEMGR\DEBUG\SCENEDESCRIPTION.OBJ
