^\\ACSNFS4.UCSD.EDU\CIFSHOMES\867\KMMENESE\VISUAL STUDIO 2015\PROJECTS\PROJECT5\VRMATH\AABB.CPP
/c /ZI /nologo /W3 /WX- /Od /Oy- /D WIN32 /D _DEBUG /D _LIB /D _VC80_UPGRADE=0x0710 /D _MBCS /Gm /EHsc /RTC1 /MTd /GS /fp:precise /Zc:wchar_t /Zc:forScope /Zc:inline /Fo"DEBUG\\" /Fd"DEBUG\VRMATH.PDB" /Gd /TP /analyze- \\ACSNFS4.UCSD.EDU\CIFSHOMES\867\KMMENESE\VISUAL STUDIO 2015\PROJECTS\PROJECT5\VRMATH\AABB.CPP
^\\ACSNFS4.UCSD.EDU\CIFSHOMES\867\KMMENESE\VISUAL STUDIO 2015\PROJECTS\PROJECT5\VRMATH\INTEGRATION.CPP
/c /ZI /nologo /W3 /WX- /Od /Oy- /D WIN32 /D _DEBUG /D _LIB /D _VC80_UPGRADE=0x0710 /D _MBCS /Gm /EHsc /RTC1 /MTd /GS /fp:precise /Zc:wchar_t /Zc:forScope /Zc:inline /Fo"DEBUG\\" /Fd"DEBUG\VRMATH.PDB" /Gd /TP /analyze- \\ACSNFS4.UCSD.EDU\CIFSHOMES\867\KMMENESE\VISUAL STUDIO 2015\PROJECTS\PROJECT5\VRMATH\INTEGRATION.CPP
^\\ACSNFS4.UCSD.EDU\CIFSHOMES\867\KMMENESE\VISUAL STUDIO 2015\PROJECTS\PROJECT5\VRMATH\LINEARR2.CPP
/c /ZI /nologo /W3 /WX- /Od /Oy- /D WIN32 /D _DEBUG /D _LIB /D _VC80_UPGRADE=0x0710 /D _MBCS /Gm /EHsc /RTC1 /MTd /GS /fp:precise /Zc:wchar_t /Zc:forScope /Zc:inline /Fo"DEBUG\\" /Fd"DEBUG\VRMATH.PDB" /Gd /TP /analyze- \\ACSNFS4.UCSD.EDU\CIFSHOMES\867\KMMENESE\VISUAL STUDIO 2015\PROJECTS\PROJECT5\VRMATH\LINEARR2.CPP
^\\ACSNFS4.UCSD.EDU\CIFSHOMES\867\KMMENESE\VISUAL STUDIO 2015\PROJECTS\PROJECT5\VRMATH\LINEARR3.CPP
/c /ZI /nologo /W3 /WX- /Od /Oy- /D WIN32 /D _DEBUG /D _LIB /D _VC80_UPGRADE=0x0710 /D _MBCS /Gm /EHsc /RTC1 /MTd /GS /fp:precise /Zc:wchar_t /Zc:forScope /Zc:inline /Fo"DEBUG\\" /Fd"DEBUG\VRMATH.PDB" /Gd /TP /analyze- \\ACSNFS4.UCSD.EDU\CIFSHOMES\867\KMMENESE\VISUAL STUDIO 2015\PROJECTS\PROJECT5\VRMATH\LINEARR3.CPP
^\\ACSNFS4.UCSD.EDU\CIFSHOMES\867\KMMENESE\VISUAL STUDIO 2015\PROJECTS\PROJECT5\VRMATH\LINEARR4.CPP
/c /ZI /nologo /W3 /WX- /Od /Oy- /D WIN32 /D _DEBUG /D _LIB /D _VC80_UPGRADE=0x0710 /D _MBCS /Gm /EHsc /RTC1 /MTd /GS /fp:precise /Zc:wchar_t /Zc:forScope /Zc:inline /Fo"DEBUG\\" /Fd"DEBUG\VRMATH.PDB" /Gd /TP /analyze- \\ACSNFS4.UCSD.EDU\CIFSHOMES\867\KMMENESE\VISUAL STUDIO 2015\PROJECTS\PROJECT5\VRMATH\LINEARR4.CPP
^\\ACSNFS4.UCSD.EDU\CIFSHOMES\867\KMMENESE\VISUAL STUDIO 2015\PROJECTS\PROJECT5\VRMATH\MATRIXLOWERRNN.CPP
/c /ZI /nologo /W3 /WX- /Od /Oy- /D WIN32 /D _DEBUG /D _LIB /D _VC80_UPGRADE=0x0710 /D _MBCS /Gm /EHsc /RTC1 /MTd /GS /fp:precise /Zc:wchar_t /Zc:forScope /Zc:inline /Fo"DEBUG\\" /Fd"DEBUG\VRMATH.PDB" /Gd /TP /analyze- \\ACSNFS4.UCSD.EDU\CIFSHOMES\867\KMMENESE\VISUAL STUDIO 2015\PROJECTS\PROJECT5\VRMATH\MATRIXLOWERRNN.CPP
^\\ACSNFS4.UCSD.EDU\CIFSHOMES\867\KMMENESE\VISUAL STUDIO 2015\PROJECTS\PROJECT5\VRMATH\MATRIXRMN.CPP
/c /ZI /nologo /W3 /WX- /Od /Oy- /D WIN32 /D _DEBUG /D _LIB /D _VC80_UPGRADE=0x0710 /D _MBCS /Gm /EHsc /RTC1 /MTd /GS /fp:precise /Zc:wchar_t /Zc:forScope /Zc:inline /Fo"DEBUG\\" /Fd"DEBUG\VRMATH.PDB" /Gd /TP /analyze- \\ACSNFS4.UCSD.EDU\CIFSHOMES\867\KMMENESE\VISUAL STUDIO 2015\PROJECTS\PROJECT5\VRMATH\MATRIXRMN.CPP
^\\ACSNFS4.UCSD.EDU\CIFSHOMES\867\KMMENESE\VISUAL STUDIO 2015\PROJECTS\PROJECT5\VRMATH\MERSENNETWISTER.CPP
/c /ZI /nologo /W3 /WX- /Od /Oy- /D WIN32 /D _DEBUG /D _LIB /D _VC80_UPGRADE=0x0710 /D _MBCS /Gm /EHsc /RTC1 /MTd /GS /fp:precise /Zc:wchar_t /Zc:forScope /Zc:inline /Fo"DEBUG\\" /Fd"DEBUG\VRMATH.PDB" /Gd /TP /analyze- \\ACSNFS4.UCSD.EDU\CIFSHOMES\867\KMMENESE\VISUAL STUDIO 2015\PROJECTS\PROJECT5\VRMATH\MERSENNETWISTER.CPP
^\\ACSNFS4.UCSD.EDU\CIFSHOMES\867\KMMENESE\VISUAL STUDIO 2015\PROJECTS\PROJECT5\VRMATH\NUMBERS.CPP
/c /ZI /nologo /W3 /WX- /Od /Oy- /D WIN32 /D _DEBUG /D _LIB /D _VC80_UPGRADE=0x0710 /D _MBCS /Gm /EHsc /RTC1 /MTd /GS /fp:precise /Zc:wchar_t /Zc:forScope /Zc:inline /Fo"DEBUG\\" /Fd"DEBUG\VRMATH.PDB" /Gd /TP /analyze- \\ACSNFS4.UCSD.EDU\CIFSHOMES\867\KMMENESE\VISUAL STUDIO 2015\PROJECTS\PROJECT5\VRMATH\NUMBERS.CPP
^\\ACSNFS4.UCSD.EDU\CIFSHOMES\867\KMMENESE\VISUAL STUDIO 2015\PROJECTS\PROJECT5\VRMATH\PARALLELEPIPED.CPP
/c /ZI /nologo /W3 /WX- /Od /Oy- /D WIN32 /D _DEBUG /D _LIB /D _VC80_UPGRADE=0x0710 /D _MBCS /Gm /EHsc /RTC1 /MTd /GS /fp:precise /Zc:wchar_t /Zc:forScope /Zc:inline /Fo"DEBUG\\" /Fd"DEBUG\VRMATH.PDB" /Gd /TP /analyze- \\ACSNFS4.UCSD.EDU\CIFSHOMES\867\KMMENESE\VISUAL STUDIO 2015\PROJECTS\PROJECT5\VRMATH\PARALLELEPIPED.CPP
^\\ACSNFS4.UCSD.EDU\CIFSHOMES\867\KMMENESE\VISUAL STUDIO 2015\PROJECTS\PROJECT5\VRMATH\POLYGONCLIP.CPP
/c /ZI /nologo /W3 /WX- /Od /Oy- /D WIN32 /D _DEBUG /D _LIB /D _VC80_UPGRADE=0x0710 /D _MBCS /Gm /EHsc /RTC1 /MTd /GS /fp:precise /Zc:wchar_t /Zc:forScope /Zc:inline /Fo"DEBUG\\" /Fd"DEBUG\VRMATH.PDB" /Gd /TP /analyze- \\ACSNFS4.UCSD.EDU\CIFSHOMES\867\KMMENESE\VISUAL STUDIO 2015\PROJECTS\PROJECT5\VRMATH\POLYGONCLIP.CPP
^\\ACSNFS4.UCSD.EDU\CIFSHOMES\867\KMMENESE\VISUAL STUDIO 2015\PROJECTS\PROJECT5\VRMATH\POLYGONINTERSECT.CPP
/c /ZI /nologo /W3 /WX- /Od /Oy- /D WIN32 /D _DEBUG /D _LIB /D _VC80_UPGRADE=0x0710 /D _MBCS /Gm /EHsc /RTC1 /MTd /GS /fp:precise /Zc:wchar_t /Zc:forScope /Zc:inline /Fo"DEBUG\\" /Fd"DEBUG\VRMATH.PDB" /Gd /TP /analyze- \\ACSNFS4.UCSD.EDU\CIFSHOMES\867\KMMENESE\VISUAL STUDIO 2015\PROJECTS\PROJECT5\VRMATH\POLYGONINTERSECT.CPP
^\\ACSNFS4.UCSD.EDU\CIFSHOMES\867\KMMENESE\VISUAL STUDIO 2015\PROJECTS\PROJECT5\VRMATH\POLYNOMIALRC.CPP
/c /ZI /nologo /W3 /WX- /Od /Oy- /D WIN32 /D _DEBUG /D _LIB /D _VC80_UPGRADE=0x0710 /D _MBCS /Gm /EHsc /RTC1 /MTd /GS /fp:precise /Zc:wchar_t /Zc:forScope /Zc:inline /Fo"DEBUG\\" /Fd"DEBUG\VRMATH.PDB" /Gd /TP /analyze- \\ACSNFS4.UCSD.EDU\CIFSHOMES\867\KMMENESE\VISUAL STUDIO 2015\PROJECTS\PROJECT5\VRMATH\POLYNOMIALRC.CPP
^\\ACSNFS4.UCSD.EDU\CIFSHOMES\867\KMMENESE\VISUAL STUDIO 2015\PROJECTS\PROJECT5\VRMATH\QUATERNION.CPP
/c /ZI /nologo /W3 /WX- /Od /Oy- /D WIN32 /D _DEBUG /D _LIB /D _VC80_UPGRADE=0x0710 /D _MBCS /Gm /EHsc /RTC1 /MTd /GS /fp:precise /Zc:wchar_t /Zc:forScope /Zc:inline /Fo"DEBUG\\" /Fd"DEBUG\VRMATH.PDB" /Gd /TP /analyze- \\ACSNFS4.UCSD.EDU\CIFSHOMES\867\KMMENESE\VISUAL STUDIO 2015\PROJECTS\PROJECT5\VRMATH\QUATERNION.CPP
^\\ACSNFS4.UCSD.EDU\CIFSHOMES\867\KMMENESE\VISUAL STUDIO 2015\PROJECTS\PROJECT5\VRMATH\RATIONALEXTRAPOLATION.CPP
/c /ZI /nologo /W3 /WX- /Od /Oy- /D WIN32 /D _DEBUG /D _LIB /D _VC80_UPGRADE=0x0710 /D _MBCS /Gm /EHsc /RTC1 /MTd /GS /fp:precise /Zc:wchar_t /Zc:forScope /Zc:inline /Fo"DEBUG\\" /Fd"DEBUG\VRMATH.PDB" /Gd /TP /analyze- \\ACSNFS4.UCSD.EDU\CIFSHOMES\867\KMMENESE\VISUAL STUDIO 2015\PROJECTS\PROJECT5\VRMATH\RATIONALEXTRAPOLATION.CPP
^\\ACSNFS4.UCSD.EDU\CIFSHOMES\867\KMMENESE\VISUAL STUDIO 2015\PROJECTS\PROJECT5\VRMATH\SCALARWITHHESSIAN.CPP
/c /ZI /nologo /W3 /WX- /Od /Oy- /D WIN32 /D _DEBUG /D _LIB /D _VC80_UPGRADE=0x0710 /D _MBCS /Gm /EHsc /RTC1 /MTd /GS /fp:precise /Zc:wchar_t /Zc:forScope /Zc:inline /Fo"DEBUG\\" /Fd"DEBUG\VRMATH.PDB" /Gd /TP /analyze- \\ACSNFS4.UCSD.EDU\CIFSHOMES\867\KMMENESE\VISUAL STUDIO 2015\PROJECTS\PROJECT5\VRMATH\SCALARWITHHESSIAN.CPP
^\\ACSNFS4.UCSD.EDU\CIFSHOMES\867\KMMENESE\VISUAL STUDIO 2015\PROJECTS\PROJECT5\VRMATH\SCALARWITHPARTIALS.CPP
/c /ZI /nologo /W3 /WX- /Od /Oy- /D WIN32 /D _DEBUG /D _LIB /D _VC80_UPGRADE=0x0710 /D _MBCS /Gm /EHsc /RTC1 /MTd /GS /fp:precise /Zc:wchar_t /Zc:forScope /Zc:inline /Fo"DEBUG\\" /Fd"DEBUG\VRMATH.PDB" /Gd /TP /analyze- \\ACSNFS4.UCSD.EDU\CIFSHOMES\867\KMMENESE\VISUAL STUDIO 2015\PROJECTS\PROJECT5\VRMATH\SCALARWITHPARTIALS.CPP
^\\ACSNFS4.UCSD.EDU\CIFSHOMES\867\KMMENESE\VISUAL STUDIO 2015\PROJECTS\PROJECT5\VRMATH\SLERP.CPP
/c /ZI /nologo /W3 /WX- /Od /Oy- /D WIN32 /D _DEBUG /D _LIB /D _VC80_UPGRADE=0x0710 /D _MBCS /Gm /EHsc /RTC1 /MTd /GS /fp:precise /Zc:wchar_t /Zc:forScope /Zc:inline /Fo"DEBUG\\" /Fd"DEBUG\VRMATH.PDB" /Gd /TP /analyze- \\ACSNFS4.UCSD.EDU\CIFSHOMES\867\KMMENESE\VISUAL STUDIO 2015\PROJECTS\PROJECT5\VRMATH\SLERP.CPP
^\\ACSNFS4.UCSD.EDU\CIFSHOMES\867\KMMENESE\VISUAL STUDIO 2015\PROJECTS\PROJECT5\VRMATH\STATISTICS.CPP
/c /ZI /nologo /W3 /WX- /Od /Oy- /D WIN32 /D _DEBUG /D _LIB /D _VC80_UPGRADE=0x0710 /D _MBCS /Gm /EHsc /RTC1 /MTd /GS /fp:precise /Zc:wchar_t /Zc:forScope /Zc:inline /Fo"DEBUG\\" /Fd"DEBUG\VRMATH.PDB" /Gd /TP /analyze- \\ACSNFS4.UCSD.EDU\CIFSHOMES\867\KMMENESE\VISUAL STUDIO 2015\PROJECTS\PROJECT5\VRMATH\STATISTICS.CPP
^\\ACSNFS4.UCSD.EDU\CIFSHOMES\867\KMMENESE\VISUAL STUDIO 2015\PROJECTS\PROJECT5\VRMATH\VECTORRN.CPP
/c /ZI /nologo /W3 /WX- /Od /Oy- /D WIN32 /D _DEBUG /D _LIB /D _VC80_UPGRADE=0x0710 /D _MBCS /Gm /EHsc /RTC1 /MTd /GS /fp:precise /Zc:wchar_t /Zc:forScope /Zc:inline /Fo"DEBUG\\" /Fd"DEBUG\VRMATH.PDB" /Gd /TP /analyze- \\ACSNFS4.UCSD.EDU\CIFSHOMES\867\KMMENESE\VISUAL STUDIO 2015\PROJECTS\PROJECT5\VRMATH\VECTORRN.CPP
